Institutional Framing and Sentiment in Cultural News Articles: Evidence from Hespress
…
bigram_edges <- hespress_culture %>%
  unnest_tokens(bigram, Body, token = "ngrams", n = 2) %>%
  separate(bigram, into = c("word1", "word2"), sep = " ") %>%
  filter(
    !word1 %in% all_sw,
    !word2 %in% all_sw,
    str_length(word1) > 1,
    str_length(word2) > 1
  ) %>%
  count(word1, word2, sort = TRUE) %>%
  slice_head(n = 30)

bigram_edges

# A tibble: 30 × 3
   word1   word2         n
   <chr>   <chr>     <int>
 1 وزارة   الثقافة     906
 2 محمد    السادس      845
 3 الدار   البيضاء     806
 4 تصريح   لهسبريس     753
 5 التواصل الاجتماعي   627
 6 العالم  العربي      618
 7 بالدار  البيضاء     611
 8 اللغة   العربية     596
 9 الفنان  المغربي     593
10 محمد    الخامس      563
# ℹ 20 more rows
…
